{
    "name": "maxreal",
    "plugins": [
        {
            "name": "SASS/SCSS",
            "description": "Sass is a stylesheet language that’s compiled to CSS. It allows you to use variables, nested rules, mixins, functions, and more, all with a fully CSS-compatible syntax.",
            "url": "https://sass-lang.com/documentation"
        },
        {
            "name": "Axios",
            "description": "Promise based HTTP client for the browser and node.js.",
            "url": "https://github.com/axios/axios"
        },
        {
            "name": "Environment Variables",
            "description": "Use environment variables in your next.js project for server side, client or both.",
            "url": "https://github.com/vercel/next.js/tree/canary/examples/environment-variables"
        },
        {
            "name": "Bundle Analyzer",
            "description": "Use webpack-bundle-analyzer in your Next.js project. Visualize size of webpack output files with an interactive zoomable treemap.",
            "url": "https://github.com/vercel/next.js/tree/canary/packages/next-bundle-analyzer"
        },
        {
            "name": "React Redux",
            "description": "Redux helps you write applications that behave consistently, run in different environments (client, server, and native), and are easy to test.",
            "url": "https://redux.js.org/introduction/getting-started"
        },
        {
            "name": "next-i18next",
            "description": "next-i18next is a plugin for Next.js projects that allows you to get translations up and running quickly and easily, while fully supporting SSR, multiple namespaces with codesplitting, etc.",
            "url": "https://github.com/isaachinman/next-i18next"
        },
        {
            "name": "ESLint",
            "description": "A pluggable and configurable linter tool for identifying and reporting on patterns in JavaScript. Maintain your code quality with ease.",
            "url": "https://eslint.org/docs/user-guide/getting-started"
        },
        {
            "name": "Prettier",
            "description": "An opinionated code formatter; Supports many languages; Integrates with most editors.",
            "url": "https://prettier.io/docs/en/index.html"
        },
        {
            "name": "lint-staged",
            "description": " The concept of lint-staged is to run configured linter (or other) tasks on files that are staged in git.",
            "url": "https://github.com/okonet/lint-staged"
        },
        {
            "name": "Docker",
            "description": "Docker simplifies and accelerates your workflow, while giving developers the freedom to innovate with their choice of tools, application stacks, and deployment environments for each project.",
            "url": "https://www.docker.com/get-started"
        },
        {
            "name": "no",
            "description": "",
            "url": ""
        }
    ]
}
